Seurat Analysis of HNSCC data set
…
## Calculating cluster 11

## Calculating cluster 12

## Calculating cluster 13

## Calculating cluster 14

hnsccScaled.markers %>% group_by(cluster) %>% top_n(n = 2, wt = avg_logFC)

## Registered S3 method overwritten by 'cli':
##   method     from    
##   print.boxx spatstat

## # A tibble: 30 x 7
## # Groups:   cluster [15]
##        p_val avg_logFC pct.1 pct.2 p_val_adj cluster gene  
##        <dbl>     <dbl> <dbl> <dbl>     <dbl> <fct>   <chr> 
##  1 0.             1.39 0.981 0.229 0.        0       S100A2
##  2 0.             1.35 0.729 0.109 0.        0       S100A9
##  3 0.             1.81 0.907 0.189 0.        1       CXCR4 
##  4 0.             1.71 0.946 0.245 0.        1       PTPRC 
##  5 0.             2.13 0.933 0.134 0.        2       ACTA2 
##  6 0.             1.99 0.958 0.165 0.        2       TAGLN 
##  7 0.             1.63 1     0.151 0.        3       EPCAM 
##  8 0.             1.63 0.933 0.024 0.        3       GSTA1 
##  9 0.             1.51 0.807 0.159 0.        4       COL3A1
## 10 1.78e-267      1.56 0.735 0.167 4.22e-263 4       LUM   
## #  with 20 more rows
…
